  ____  _       _ _        _   ____            _             __        ___    _     _     _____ _____
 |  _ \(_) __ _(_) |_ __ _| | | __ )  __ _  __| | __ _  ___  \ \      / / \  | |   | |   | ____|_   _|
 | | | | |/ _` | | __/ _` | | |  _ \ / _` |/ _` |/ _` |/ _ \  \ \ /\ / / _ \ | |   | |   |  _|   | |
 | |_| | | (_| | | || (_| | | | |_) | (_| | (_| | (_| |  __/   \ V  V / ___ \| |___| |___| |___  | |
 |____/|_|\__, |_|\__\__,_|_| |____/ \__,_|\__,_|\__, |\___|    \_/\_/_/   \_\_____|_____|_____| |_|
          |___/                                  |___/

